NULL,7.75274276733398000000E-11
DEC_INT_INIT,6.68526649475098000000E-09
DEC_FLOAT_INIT,6.66998863220215000000E-09
DEC_DOUBLE_INIT,7.65257835388184000000E-09
ASS_VAR_INT,8.34409904479981000000E-09
ASS_VAR_FLOAT,7.74132728576660000000E-09
ASS_VAR_DOUBLE,6.53437614440918000000E-09
ASS_VAR_VAR_INT,1.08798980712891000000E-09
ASS_VAR_VAR_FLOAT,5.75348854064941000000E-09
ASS_VAR_VAR_DOUBLE,2.76000408250458000000E-10
ASS_ADD_INT_INT,7.59155273437500000000E-09
ASS_ADD_FLOAT_FLOAT,6.78654670715332000000E-09
ASS_ADD_DOUBLE_DOUBLE,6.32520675659180000000E-09
ASS_ADD_VAR_VAR_INT,9.83373305591721000000E-10
ASS_ADD_VAR_VAR_FLOAT,5.89923178943772000000E-09
ASS_ADD_VAR_VAR_DOUBLE,1.01743657038762000000E-9
ASS_ADD_VAR_INT,1.63169817243304000000E-10
ASS_ADD_VAR_FLOAT,4.89406133952894000000E-09
ASS_ADD_VAR_DOUBLE,4.76674652099610000000E-10
ASS_SUB_INT_INT,7.53893852233887000000E-09
ASS_SUB_FLOAT_FLOAT,6.35155677795410000000E-09
ASS_SUB_DOUBLE_DOUBLE,6.78955078125000000000E-09
ASS_SUB_VAR_VAR_INT,1.32373305591721000000E-09
ASS_SUB_VAR_VAR_FLOAT,7.24923178943772000000E-09
ASS_SUB_VAR_VAR_DOUBLE,8.58375549316406000000E-10
ASS_SUB_VAR_INT,5.25802612304688000000E-09
ASS_SUB_VAR_FLOAT,2.44111061096191000000E-09
ASS_SUB_VAR_DOUBLE,1.99270870374597000000E-09
ASS_MUL_INT_INT,6.88568115234375000000E-09
ASS_MUL_FLOAT_FLOAT,6.49738311767578000000E-09
ASS_MUL_DOUBLE_DOUBLE,6.86173439025879000000E-09
ASS_MUL_VAR_VAR_INT,9.23373305591721000000E-10
ASS_MUL_VAR_VAR_FLOAT,5.89923178943772000000E-09
ASS_MUL_VAR_VAR_DOUBLE,1.22623443603516000000E-09
ASS_MUL_VAR_INT,1.46000453404018000000E-09
ASS_MUL_VAR_FLOAT,1.94280215672084000000E-09
ASS_MUL_VAR_DOUBLE,1.80590845503897000000E-09
ASS_DIV_INT_INT,6.84216499328613000000E-09
ASS_DIV_FLOAT_FLOAT,6.80920600891113000000E-09
ASS_DIV_DOUBLE_DOUBLE,7.40040779113770000000E-09
ASS_DIV_VAR_VAR_INT,9.81255439019972000000E-10
ASS_DIV_VAR_VAR_FLOAT,1.18052120866447000000E-09
ASS_DIV_VAR_VAR_DOUBLE,1.18052120866447000000E-09
ASS_DIV_VAR_INT,1.53476300920759000000E-08
ASS_DIV_VAR_FLOAT,1.41568039559029000000E-08
ASS_DIV_VAR_DOUBLE,1.12523460388184000000E-08
SHL_INT,3.03851478368762000000E-11
SHR_INT,3.21738476549762000000E-11
CMP_VAR_INT,3.73934326171875000000E-09
CMP_VAR_FLOAT,3.62557411193848000000E-09
CMP_VAR_DOUBLE,1.21261596679688000000E-09
CMP_VAR_VAR_INT,1.37432098388672000000E-09
CMP_VAR_VAR_FLOAT,1.37432098388672000000E-09
CMP_VAR_VAR_DOUBLE,1.37432098388672000000E-09
ASS_VAR_CHAR,6.81907653808594000000E-08
ASS_VAR_VAR_CHAR,8.93637348618618000000E-08
CMP_VAR_CHAR,4.51387405395508000000E-09
CMP_VAR_VAR_CHAR,1.37432098388672000000E-09
DEC_ARRAY,6.52879714965820000000E-09
DEC_STRUCT,6.27388000488281000000E-09
ASS_VAR_ADDR,6.75873031616211000000E-09
ADDR_CALC,5.65365905761719000000E-10
ARR_POS_LOAD,3.72333145141602000000E-09
ASS_VAR_REF_INT,7.12333145141602000000E-10
ASS_VAR_REF_CHAR,6.72333145141602000000E-10
ASS_VAR_REF_FLOAT,7.42333145141602000000E-10
ASS_VAR_REF_DOUBLE,8.02333145141602000000E-10
ASS_VAR_REF_ADDR,4.85728553323185000000E-09
CAST_INT,5.29873382568359000000E-09
CAST_CHAR,1.45132664271763000000E-11
CAST_FLOAT,1.69996379172965000000E-09
CAST_DOUBLE,5.00125798312101000000E-09
CAST_ADDR,7.84085865636026000000E-10
FUN_scanf,4.71799278259277000000E-07
FUN_printf,2.70067806243896000000E-07
FUN_puts,9.10670485243896000000E-08
FUN_strlen,3.80140686035156000000E-08
FUN_strcpy,4.07556724548340000000E-08
FUN_strcat,7.09342002868652000000E-08
FUN_sprintf,3.74226951599121000000E-07
FUN_fprintf,5.38408870697022000000E-07
FUN_fputs,3.83870574697022000000E-07
FUN_fopen,3.03699703216553000000E-07
FUN_fclose,3.11715946197510000000E-07
FUN_fread,3.05256500244141000000E-07
FUN_time,2.65657997131348000000E-08
FUN_srand,4.93836084365845000000E-06
FUN_rand,4.96456323623657000000E-06
FUN_atoi,9.53764343261719000000E-08
FUN_floor,1.52798366546631000000E-08
FUN_log10,7.92357136546631000000E-08
FUN_fmod,5.56570816040039000000E-08
FUN_malloc,1.03822174072266000000E-07
FUN_free,9.64663124084473000000E-08
FUN_putchar,6.64663124084473000000E-09
FUN_mpz_mul_ui,1.64663124084473000000E-10
FUN_mpz_add,2.64663124084473000000E-10
FUN_mpz_tdiv_q,3.64663124084473000000E-10
FUN_mpz_get_ui,1.04663124084473000000E-10
FUN_mpz_submul_ui,2.64663124084473000000E-10
FUN_mpz_addmul_ui,1.94663124084473000000E-10
FUN_mpz_init,1.64663124084473000000E-10
FUN_mpz_init_set_ui,1.64663124084473000000E-10
FUN_mpz_cmp,4.15749124084473000000E-10
FUN_tolower,4.52298366546631000000E-07
FUN_toupper,7.91741686546631000000E-11
FUN_isalpha,2.74358366546631000000E-11
FUN_isdigit,2.13474366546631000000E-09
FUN_isalnum,6.54363567456371000000E-08
FUN_strncat,2.66546613474331000000E-07
FUN_strcmp,2.15633121344331000000E-06
FUN_pow,7.66613654474331000000E-07
FUN_sqrt,2.78364548474331000000E-07
FUN_qsort,2.14845047431083500000E-06
FUN_memset,4.74615874474331000000E-06
FUN_memcmp,9.11741486784331000000E-06
FUN_calloc,8.83123574072266000000E-09